{
  "nodes": [
    {
      "node": "476115531.476115600",
      "type": "transformation",
      "label": "[Main] Combine",
      "object": {
        "type": "transformation",
        "bucket": "476115531",
        "transformation": "476115600"
      },
      "distance": 1
    },
    {
      "node": "in.c-keboola-ex-google-drive-476114839.Bluefox-Devices-Setup-DeviceList",
      "type": "input",
      "label": "in.c-keboola-ex-google-drive-476114839.Bluefox-Devices-Setup-DeviceList",
      "object": {
        "type": "storage",
        "table": "in.c-keboola-ex-google-drive-476114839.Bluefox-Devices-Setup-DeviceList"
      },
      "distance": 2
    },
    {
      "node": "in.c-keboola-ex-aws-s3-475387234.devices",
      "type": "input",
      "label": "in.c-keboola-ex-aws-s3-475387234.devices",
      "object": {
        "type": "storage",
        "table": "in.c-keboola-ex-aws-s3-475387234.devices"
      },
      "distance": 2
    },
    {
      "node": "in.c-keboola-ex-google-drive-476226718.Bluefox-Devices-Setup-MAC-manufacturers",
      "type": "input",
      "label": "in.c-keboola-ex-google-drive-476226718.Bluefox-Devices-Setup-MAC-manufacturers",
      "object": {
        "type": "storage",
        "table": "in.c-keboola-ex-google-drive-476226718.Bluefox-Devices-Setup-MAC-manufacturers"
      },
      "distance": 2
    },
    {
      "node": "out.c-main.out",
      "type": "output",
      "label": "out.c-main.out",
      "object": {
        "type": "storage",
        "table": "out.c-main.out"
      },
      "distance": 0
    },
    {
      "node": "out.c-roti.traffic",
      "type": "output",
      "label": "out.c-roti.traffic",
      "object": {
        "type": "storage",
        "table": "out.c-roti.traffic"
      },
      "distance": 1
    }
  ],
  "transitions": [
    {
      "source": "476115531.476115600",
      "target": "out.c-main.out",
      "type": "data",
      "distance": 0
    },
    {
      "source": "in.c-keboola-ex-google-drive-476114839.Bluefox-Devices-Setup-DeviceList",
      "target": "476115531.476115600",
      "type": "data",
      "distance": 1
    },
    {
      "source": "in.c-keboola-ex-aws-s3-475387234.devices",
      "target": "476115531.476115600",
      "type": "data",
      "distance": 1
    },
    {
      "source": "in.c-keboola-ex-google-drive-476226718.Bluefox-Devices-Setup-MAC-manufacturers",
      "target": "476115531.476115600",
      "type": "data",
      "distance": 1
    },
    {
      "source": "out.c-main.out",
      "target": "out.c-roti.traffic",
      "type": "alias",
      "distance": 0
    }
  ]
}